{
  "reportName" : "Allure Report",
  "testRuns" : [ ],
  "statistic" : {
    "failed" : 0,
    "broken" : 0,
    "skipped" : 0,
    "passed" : 1,
    "unknown" : 0,
    "total" : 1
  },
  "time" : {
    "start" : 1627944461187,
    "stop" : 1627944464053,
    "duration" : 2866,
    "minDuration" : 2866,
    "maxDuration" : 2866,
    "sumDuration" : 2866
  }
}